<?xml version="1.0" encoding="utf-8"?>
<!-- Generator: Adobe Illustrator 16.0.0, SVG Export Plug-In . SVG Version: 6.00 Build 0)  -->
<!DOCTYPE svg PUBLIC "-//W3C//DTD SVG 1.1//EN" "http://www.w3.org/Graphics/SVG/1.1/DTD/svg11.dtd">
<svg version="1.1" xmlns="http://www.w3.org/2000/svg" xmlns:xlink="http://www.w3.org/1999/xlink" x="0px" y="0px" width="100px"
	 height="100px" viewBox="0 0 100 100" enable-background="new 0 0 100 100" xml:space="preserve">
<g id="Layer_1">
	<g>
		<path fill="#02B4AD" d="M68.36,93.87c-12.24,0-24.48,0-36.72,0c-0.39-0.1-0.77-0.22-1.17-0.29c-2.38-0.4-4.82-0.59-7.15-1.21
			c-6.82-1.83-11.61-6.14-14.57-12.52c-1.61-3.45-2.2-7.14-2.46-10.91c-0.09-1.31-0.2-2.62-0.29-3.93c0-10.1,0-20.21,0-30.31
			c0.1-0.24,0.27-0.48,0.28-0.73c0.12-1.77,0.18-3.55,0.31-5.32c0.26-3.75,1.29-7.27,3.2-10.52c3.98-6.77,9.97-10.44,17.7-11.41
			c1.3-0.16,2.58-0.39,3.87-0.58c12.44,0,24.87,0,37.31,0c0.2,0.1,0.39,0.28,0.59,0.28c3.47,0.02,6.8,0.71,10,2.05
			c6.88,2.88,11.36,8,13.23,15.15c0.85,3.24,0.85,6.7,1.25,10.06c0.05,0.44,0.19,0.88,0.29,1.32c0,10.01,0,20.01,0,30.02
			c-0.1,0.54-0.29,1.07-0.28,1.6c0.11,3.76-0.3,7.49-1.56,11c-3.23,9.01-9.92,14.29-19.51,15.66C71.23,93.48,69.8,93.67,68.36,93.87
			z M50.04,14.29c-5.2,0-10.39-0.09-15.59,0.04c-2.62,0.07-5.28,0.28-7.82,0.89c-5.48,1.32-9.26,4.63-11.07,10.13
			c-1.33,4.05-1.28,8.25-1.34,12.37c-0.15,9.06,0.08,18.12,0.24,27.18c0.04,2.54,0.18,5.1,0.6,7.59c1,5.91,4.89,10.68,10.97,12
			c3.06,0.67,6.23,1.11,9.36,1.15c9.9,0.14,19.81,0.11,29.72,0.01c2.66-0.03,5.37-0.31,7.97-0.88c6.18-1.35,10.34-5.09,11.58-11.4
			c0.71-3.64,1.11-7.4,1.14-11.11c0.08-9.06-0.1-18.12-0.26-27.19c-0.04-2.54-0.16-5.1-0.6-7.59c-1.02-5.76-4.22-9.94-9.89-11.69
			c-2.83-0.88-5.87-1.32-8.84-1.45C60.83,14.13,55.43,14.29,50.04,14.29z"/>
		<path fill-rule="evenodd" clip-rule="evenodd" fill="#02B4AD" d="M50.01,27.42c12.47-0.31,22.78,10.05,22.71,22.73
			c-0.07,12.09-9.98,23.24-24.17,22.45c-11.28-0.63-21.32-9.9-21.23-22.9C27.38,37.49,37.42,27.12,50.01,27.42z M50.08,35.57
			c-8.52-0.02-14.64,6.81-14.57,14.5c0.07,7.94,6.28,14.18,14.13,14.35c8.75,0.19,14.94-6.81,14.87-14.48
			C64.43,42.06,58.23,35.62,50.08,35.57z"/>
		<path fill-rule="evenodd" clip-rule="evenodd" fill="#02B4AD" d="M73.31,21.29c3.23,0,5.5,2.19,5.55,5.25
			c0.06,3.45-3.17,5.55-5.45,5.51c-2.88-0.05-5.38-2.3-5.39-5.48C68,23.81,70.48,20.91,73.31,21.29z"/>
	</g>
</g>
<g id="Layer_2">
</g>
</svg>
