<?xml version="1.0" encoding="utf-8"?>
<!-- Generator: Adobe Illustrator 16.0.0, SVG Export Plug-In . SVG Version: 6.00 Build 0)  -->
<!DOCTYPE svg PUBLIC "-//W3C//DTD SVG 1.1//EN" "http://www.w3.org/Graphics/SVG/1.1/DTD/svg11.dtd">
<svg version="1.1" xmlns="http://www.w3.org/2000/svg" xmlns:xlink="http://www.w3.org/1999/xlink" x="0px" y="0px" width="100px"
	 height="100px" viewBox="0 0 100 100" enable-background="new 0 0 100 100" xml:space="preserve">
<g id="Layer_1">
	<path fill="#02B4AD" d="M94.41,26.64c-3.27,1.45-6.78,2.43-10.47,2.87c3.76-2.25,6.65-5.83,8.01-10.08
		c-3.52,2.09-7.42,3.61-11.57,4.42c-3.32-3.54-8.06-5.75-13.3-5.75c-10.06,0-18.22,8.16-18.22,18.22c0,1.43,0.16,2.82,0.47,4.15
		c-15.14-0.76-28.57-8.01-37.56-19.04c-1.57,2.69-2.47,5.82-2.47,9.16c0,6.32,3.22,11.9,8.11,15.17c-2.99-0.09-5.8-0.91-8.25-2.28
		c0,0.08,0,0.15,0,0.23c0,8.83,6.28,16.19,14.62,17.87c-1.53,0.42-3.14,0.64-4.8,0.64c-1.17,0-2.32-0.12-3.43-0.33
		c2.32,7.24,9.05,12.51,17.02,12.66c-6.24,4.88-14.09,7.8-22.63,7.8c-1.47,0-2.92-0.09-4.35-0.26c8.06,5.17,17.64,8.19,27.93,8.19
		c33.52,0,51.84-27.77,51.84-51.84c0-0.79-0.02-1.58-0.05-2.36C88.88,33.5,91.96,30.3,94.41,26.64z"/>
</g>
<g id="Layer_2">
</g>
</svg>
