<?xml version="1.0" encoding="utf-8"?>
<!-- Generator: Adobe Illustrator 16.0.0, SVG Export Plug-In . SVG Version: 6.00 Build 0)  -->
<!DOCTYPE svg PUBLIC "-//W3C//DTD SVG 1.1//EN" "http://www.w3.org/Graphics/SVG/1.1/DTD/svg11.dtd">
<svg version="1.1" xmlns="http://www.w3.org/2000/svg" xmlns:xlink="http://www.w3.org/1999/xlink" x="0px" y="0px" width="100px"
	 height="100px" viewBox="0 0 100 100" enable-background="new 0 0 100 100" xml:space="preserve">
<g id="Layer_1">
	<path id="White_2_" fill="#02B4AD" d="M88.03,7.25H11.97c-2.61,0-4.72,2.11-4.72,4.72v76.05c0,2.6,2.11,4.72,4.72,4.72h40.94V59.64
		H41.78v-12.9h11.14v-9.52c0-11.04,6.74-17.05,16.59-17.05c4.72,0,8.77,0.35,9.96,0.51v11.54l-6.83,0c-5.36,0-6.4,2.55-6.4,6.28
		v8.24h12.78l-1.66,12.9H66.24v33.11h21.79c2.61,0,4.72-2.12,4.72-4.72V11.97C92.74,9.37,90.63,7.25,88.03,7.25z"/>
</g>
<g id="Layer_2">
</g>
</svg>
