<?xml version="1.0" encoding="utf-8"?>
<!-- Generator: Adobe Illustrator 16.0.0, SVG Export Plug-In . SVG Version: 6.00 Build 0)  -->
<!DOCTYPE svg PUBLIC "-//W3C//DTD SVG 1.1//EN" "http://www.w3.org/Graphics/SVG/1.1/DTD/svg11.dtd">
<svg version="1.1" id="Layer_1" xmlns="http://www.w3.org/2000/svg" xmlns:xlink="http://www.w3.org/1999/xlink" x="0px" y="0px"
	 width="16px" height="16px" viewBox="0 0 16 16" enable-background="new 0 0 16 16" xml:space="preserve">
<path fill-rule="evenodd" clip-rule="evenodd" fill="#00B4AD" d="M10.039,11.599c-0.347,0.194-0.625,0.064-1.016-0.144
	c-0.356-0.273-1.408-1.107-2.518-2.225C5.695,8.197,5.075,7.222,4.789,6.753c-0.02-0.052-0.029-0.082-0.029-0.082
	C4.592,6.25,4.488,5.954,4.718,5.623c0.213-0.304,0.295-0.387,0.565-0.628L2.562,0.929C2.234,1.17,1.725,1.713,1.306,2.315
	C0.917,2.888,0.589,3.521,0.5,3.973c0.474,1.723,1.619,4.935,3.737,7.229v0.01c2.037,2.532,5.275,4.107,6.993,4.788
	c0.455-0.043,1.114-0.308,1.719-0.638c0.639-0.356,1.228-0.811,1.499-1.115l-3.729-3.15C10.451,11.344,10.361,11.417,10.039,11.599z
	 M6.437,4.021c0.225-0.166,0.165-0.467,0.061-0.633L4.433,0.203C4.298,0.038,4.018-0.049,3.775,0.029L2.924,0.604l2.729,4.059
	L6.437,4.021z M15.346,12.433l-2.929-2.399c-0.153-0.122-0.444-0.214-0.63-0.006l-0.715,0.72l3.722,3.157l0.655-0.792
	C15.551,12.876,15.494,12.585,15.346,12.433z"/>
</svg>
