<?xml version="1.0" encoding="utf-8"?>
<!-- Generator: Adobe Illustrator 16.0.0, SVG Export Plug-In . SVG Version: 6.00 Build 0)  -->
<!DOCTYPE svg PUBLIC "-//W3C//DTD SVG 1.1//EN" "http://www.w3.org/Graphics/SVG/1.1/DTD/svg11.dtd">
<svg version="1.1" id="Layer_1" xmlns="http://www.w3.org/2000/svg" xmlns:xlink="http://www.w3.org/1999/xlink" x="0px" y="0px"
	 width="612px" height="792px" viewBox="0 0 612 792" enable-background="new 0 0 612 792" xml:space="preserve">
<g>
	<defs>
		<rect id="SVGID_1_" y="141" width="612" height="510"/>
	</defs>
	<clipPath id="SVGID_2_">
		<use xlink:href="#SVGID_1_"  overflow="visible"/>
	</clipPath>
	<path clip-path="url(#SVGID_2_)" fill-rule="evenodd" clip-rule="evenodd" fill="#010101" d="M432.86,406.98
		c-0.29-0.57-0.29-1.16-0.29-1.73v-8.94c0-3.03,3.03-5.48,6.78-5.48h16.44c3.74,0,6.77,2.45,6.77,5.48v8.94
		c0,0.57-0.14,1.16-0.29,1.59c-3.46-4.19-8.8-6.78-14.71-6.78C441.66,400.06,436.33,402.8,432.86,406.98"/>
	<path clip-path="url(#SVGID_2_)" fill-rule="evenodd" clip-rule="evenodd" fill="#010101" d="M392.63,411.6
		c3.75,0,6.77-2.46,6.77-5.49v-8.94c0-3.03-3.03-5.48-6.77-5.48h-16.44c-3.75,0-6.78,2.45-6.78,5.48v8.94
		c0,3.03,3.03,5.49,6.78,5.49H392.63"/>
	<path clip-path="url(#SVGID_2_)" fill-rule="evenodd" clip-rule="evenodd" fill="#010101" d="M404.75,429.19
		c3.6,0,3.75,7.64,3.75,9.81c0,2.01-0.15,9.66-3.75,9.66c-3.46,0-3.6-7.65-3.6-9.66C401.14,436.83,401.28,429.19,404.75,429.19"/>
	<path clip-path="url(#SVGID_2_)" fill-rule="evenodd" clip-rule="evenodd" fill="#010101" d="M502.23,398.04l-10.96-0.58
		c-2.75-0.15-5.05,2.02-5.2,4.76l-1,2.45c-5.77-11.97-15.14-28.12-23.65-28.55c-2.02-0.15-44.7,0-44.7,0
		c-21.2-0.15-42.4-0.15-44.42,0c-12.26,0.72-26.24,33.89-28.98,40.37c-14.43,13.27-8.65,56.25-4.47,59.85h3.6v10.53
		c0,4.61,3.61,8.37,8.23,8.37h11.24c4.62,0,8.37-3.76,8.37-8.37v-10.24c11.97,0.14,26.25,0.14,40.52,0.14c0,0,28.84-0.14,52.93-0.14
		v10.95c0,4.62,3.6,8.37,8.22,8.37h11.25c4.62,0,8.37-3.75,8.37-8.37v-11.1h3.46c4.19-3.61,10.09-47.01-4.6-60.13
		c-0.3-0.57-0.59-1.44-1.17-2.59l12.26-0.43c2.73,0.14,5.05-2.02,5.19-4.76l0.28-5.34C507.13,400.49,504.96,398.19,502.23,398.04
		 M436.03,408.86c-1.58-0.15-18.45-0.72-18.45-0.72c-22.5-0.14-49.9,1-66.91,4.62c3.89-9.96,12.97-30,24.51-30.29
		c1.15-0.14,19.9-0.14,39.66-0.14v2.02h-7.21c-2.02,0-3.75,1.88-3.75,4.32c0,2.31,1.73,4.18,3.75,4.18h18.02
		c2.17,0,3.9-1.88,3.9-4.18c0-2.45-1.73-4.32-3.9-4.32h-7.35v-2.02h40.23c11.54,0.43,20.77,20.61,24.66,30.57
		c-4.47-0.87-21.48-2.45-22.93-2.59c-2.74-4.05-7.35-6.64-12.69-6.64C442.96,403.67,438.92,405.68,436.03,408.86 M342.59,446.35
		c0-6.34,5.04-11.39,11.25-11.39c6.19,0,11.25,5.05,11.25,11.39c0,6.2-5.05,11.25-11.25,11.25
		C347.64,457.6,342.59,452.55,342.59,446.35 M467.62,446.78c0-6.34,5.04-11.39,11.25-11.39c6.2,0,11.24,5.05,11.24,11.39
		c0,6.2-5.04,11.25-11.24,11.25C472.66,458.03,467.62,452.98,467.62,446.78 M389.03,456.3c-1.87,0.87-3.75,1.3-5.77,1.3
		c-9.8,0-13.26-10.24-13.26-18.46c0-9.09,3.6-19.04,13.98-19.04c1.73,0,3.31,0.43,5.05,1.15v8.79c-1.02-0.86-1.73-1.15-3.03-1.15
		c-4.91,0-5.91,5.92-5.91,9.66c0,3.9,0.72,9.67,5.77,9.67c1.15,0,2.15-0.43,3.17-1.16V456.3z M404.89,457.75
		c-7.36,0-13.86-4.33-13.86-18.75c0-15.72,8.08-18.75,13.86-18.75c6.49,0,13.69,4.18,13.69,18.75
		C418.59,453.7,411.66,457.75,404.89,457.75 M431.71,426.73h0.15c1.72-3.61,4.61-6.63,8.79-6.63c3.75,0,5.77,2.88,6.2,6.2h0.15
		c1.73-3.18,4.91-6.2,8.8-6.2c6.49,0,6.49,7.21,6.49,11.97v24.8h-10.09v-19.46c0-1.88,0.43-7.21-2.6-7.21
		c-2.31,0-2.74,2.45-2.74,4.04v22.63h-9.95v-20.18c0-1.74,0.44-6.34-2.45-6.34c-2.45,0-2.89,2.3-2.89,4.18v22.35h-10.09v-36.05
		h10.09L431.71,426.73z"/>
	<path clip-path="url(#SVGID_2_)" fill-rule="evenodd" clip-rule="evenodd" fill="#010101" d="M116.91,434.38h-8.23v-1.16
		c0-2.59,0.73-7.21,4.04-7.21c3.61,0,4.19,4.75,4.19,7.35V434.38 M126.57,436.69c0.58-12.69-6.2-19.33-13.56-19.33
		c-11.68,0-15.28,12.11-15.28,21.78c0,9.81,4.04,19.89,15.43,19.89c8.22,0,11.83-5.77,12.69-13.12h-9.52c0,2.3-0.72,4.61-3.61,4.61
		c-4.18,0-4.04-6.34-4.18-9.22h17.74L126.57,436.69z"/>
	<path clip-path="url(#SVGID_2_)" fill-rule="evenodd" clip-rule="evenodd" fill="#010101" d="M144.45,448.95
		c-3.9,0-4.19-8.37-4.19-10.97c0-2.3,0.29-10.67,4.04-10.67c3.75,0,4.03,8.51,4.03,10.67C148.34,440.15,147.91,448.95,144.45,448.95
		 M147.48,458.32h11.25v-64.17h-11.25v28.98h-0.14c-1.3-3.31-3.75-5.77-7.5-5.77c-9.38,0-10.67,13.99-10.67,20.91
		c0,6.34,1.73,20.76,10.82,20.76c3.6,0,5.91-2.3,7.35-5.18h0.14V458.32z"/>
	<path clip-path="url(#SVGID_2_)" fill-rule="evenodd" clip-rule="evenodd" fill="#010101" d="M173.72,424.72h0.14
		c1.88-3.89,5.05-7.35,9.81-7.35c4.18,0,6.34,3.32,6.92,6.92h0.14c1.88-3.61,5.34-6.92,9.67-6.92c7.21,0,7.21,8.08,7.21,13.27v27.68
		h-11.11v-21.77c0-2.02,0.44-7.93-2.88-7.93c-2.59,0-3.03,2.74-3.03,4.47v25.23h-11.25v-22.49c0-2.02,0.58-7.07-2.59-7.07
		c-2.74,0-3.17,2.59-3.17,4.62v24.94h-11.24v-40.09h11.24L173.72,424.72"/>
	<path clip-path="url(#SVGID_2_)" fill-rule="evenodd" clip-rule="evenodd" fill="#010101" d="M222.47,418.23v22.07
		c0,2.16-1,8.36,2.88,8.36c3.03,0,2.74-4.04,2.74-5.9l0.14-24.52h11.1v25.53c0,9.36-4.33,15.28-14.42,15.28
		c-12.69,0-13.71-9.37-13.71-16.72v-24.08H222.47"/>
	<path clip-path="url(#SVGID_2_)" fill-rule="evenodd" clip-rule="evenodd" fill="#010101" d="M254.48,424.43h0.15
		c1.44-3.89,4.9-7.06,9.23-7.06c8.36,0,7.64,9.23,7.64,15v25.95h-11.25v-22.05c0-2.02,0.87-7.65-2.74-7.65
		c-2.6,0-3.03,2.74-3.03,4.61v25.09h-11.25v-40.09h11.25V424.43"/>
	<path clip-path="url(#SVGID_2_)" fill-rule="evenodd" clip-rule="evenodd" fill="#010101" d="M289.52,448.95
		c-3.9,0-4.04-8.37-4.04-10.97c0-2.3,0.29-10.67,3.89-10.67c3.9,0,4.04,8.51,4.04,10.67C293.42,440.15,293.13,448.95,289.52,448.95
		 M292.69,458.32h11.12v-64.17h-11.12v28.98h-0.14c-1.3-3.31-3.89-5.77-7.5-5.77c-9.52,0-10.81,13.99-10.81,20.91
		c0,6.34,1.87,20.76,10.96,20.76c3.46,0,5.77-2.3,7.35-5.18h0.14V458.32z"/>
	<path clip-path="url(#SVGID_2_)" fill-rule="evenodd" clip-rule="evenodd" fill="#010101" d="M326.44,429.05
		c-1.59-1.44-3.17-2.6-5.47-2.6c-2.03,0-3.04,1.17-3.04,2.89c0.15,4.76,12.84,3.75,12.84,15.72c0,7.93-4.61,13.98-12.84,13.98
		c-4.32,0-8.79-1.73-12.11-4.46l4.91-7.94c1.72,1.45,3.31,2.6,5.61,2.6c1.74,0,3.17-1.3,3.17-3.31c0.15-5.34-12.69-4.04-12.83-16.73
		c0-7.64,6.49-11.83,13.56-11.83c4.03,0,7.5,1.16,10.67,3.46L326.44,429.05"/>
	<path clip-path="url(#SVGID_2_)" fill="#010101" d="M484.75,375.6c4.18,0,7.5,3.39,7.5,7.64c0,4.31-3.32,7.67-7.53,7.67
		c-4.18,0-7.57-3.36-7.57-7.67c0-4.25,3.39-7.64,7.57-7.64H484.75 M484.72,376.79c-3.37,0-6.11,2.88-6.11,6.45
		c0,3.63,2.74,6.49,6.14,6.49c3.4,0.04,6.11-2.85,6.11-6.45c0-3.6-2.72-6.48-6.11-6.48H484.72z M483.3,387.68h-1.37v-8.52
		c0.72-0.1,1.39-0.21,2.41-0.21c1.3,0,2.14,0.28,2.65,0.65c0.51,0.37,0.78,0.95,0.78,1.77c0,1.11-0.74,1.8-1.65,2.07v0.07
		c0.74,0.14,1.25,0.82,1.42,2.07c0.21,1.33,0.41,1.84,0.55,2.11h-1.43c-0.21-0.27-0.4-1.05-0.57-2.17
		c-0.21-1.09-0.75-1.49-1.83-1.49h-0.95V387.68z M483.3,382.97h0.99c1.11,0,2.07-0.41,2.07-1.46c0-0.74-0.55-1.5-2.07-1.5
		c-0.45,0-0.75,0.04-0.99,0.07V382.97z"/>
	<path clip-path="url(#SVGID_2_)" fill="#343333" d="M115.03,283.55c2.07,0.68,3.75,1.93,5.03,3.75c1.03,1.47,1.73,3.06,2.1,4.77
		c0.37,1.71,0.56,3.34,0.56,4.89c0,3.93-0.79,7.25-2.37,9.98c-2.14,3.67-5.44,5.51-9.9,5.51H97.73v-29.53h12.73
		C112.29,282.94,113.82,283.15,115.03,283.55 M103.72,288.04v19.27h5.7c2.92,0,4.95-1.44,6.1-4.31c0.63-1.58,0.94-3.45,0.94-5.63
		c0-3-0.47-5.31-1.41-6.92c-0.94-1.61-2.82-2.41-5.63-2.41H103.72z"/>
	<path clip-path="url(#SVGID_2_)" fill="#343333" d="M136.62,282.91h6.98l10.45,29.53h-6.69l-1.95-6.07h-10.87l-2,6.07h-6.45
		L136.62,282.91 M136.22,301.28h7.56l-3.73-11.62L136.22,301.28z"/>
	<polyline clip-path="url(#SVGID_2_)" fill="#343333" points="177.06,282.91 177.06,288.14 168.22,288.14 168.22,312.44 
		162.01,312.44 162.01,288.14 153.14,288.14 153.14,282.91 177.06,282.91 	"/>
	<path clip-path="url(#SVGID_2_)" fill="#343333" d="M186.9,282.91h6.98l10.45,29.53h-6.69l-1.95-6.07h-10.87l-2,6.07h-6.45
		L186.9,282.91 M186.5,301.28h7.56l-3.73-11.62L186.5,301.28z"/>
	<path clip-path="url(#SVGID_2_)" fill="#343333" d="M239.45,299.66c-1.73,1.44-4.2,2.16-7.41,2.16h-6.15v10.62h-6.13v-29.53h12.68
		c2.92,0,5.25,0.76,6.99,2.28c1.73,1.52,2.61,3.88,2.61,7.07C242.04,295.75,241.18,298.22,239.45,299.66 M234.74,289.02
		c-0.78-0.65-1.88-0.98-3.29-0.98h-5.56v8.69h5.56c1.41,0,2.5-0.35,3.29-1.06c0.78-0.71,1.17-1.83,1.17-3.37
		S235.52,289.68,234.74,289.02z"/>
	<path clip-path="url(#SVGID_2_)" fill="#343333" d="M266.73,283.67c1.09,0.47,2.01,1.16,2.77,2.06c0.62,0.75,1.12,1.58,1.48,2.48
		c0.36,0.91,0.55,1.94,0.55,3.1c0,1.4-0.36,2.78-1.06,4.14c-0.71,1.36-1.88,2.31-3.51,2.87c1.36,0.55,2.33,1.33,2.89,2.33
		c0.57,1.01,0.85,2.55,0.85,4.62v1.99c0,1.35,0.05,2.26,0.16,2.74c0.16,0.76,0.54,1.32,1.14,1.68v0.74h-6.81
		c-0.19-0.65-0.32-1.18-0.4-1.58c-0.16-0.83-0.25-1.68-0.26-2.54l-0.04-2.74c-0.03-1.88-0.35-3.14-0.98-3.77
		c-0.62-0.63-1.79-0.94-3.51-0.94h-6.02v11.58h-6.03v-29.53h14.12C264.09,282.95,265.64,283.21,266.73,283.67 M253.98,288.04v7.93
		h6.64c1.32,0,2.31-0.16,2.97-0.48c1.17-0.56,1.75-1.67,1.75-3.33c0-1.79-0.56-2.99-1.69-3.61c-0.63-0.35-1.59-0.52-2.85-0.52
		H253.98z"/>
	<path clip-path="url(#SVGID_2_)" fill="#343333" d="M301,309.82c-2.23,2.3-5.46,3.44-9.68,3.44c-4.22,0-7.44-1.15-9.67-3.44
		c-2.99-2.82-4.49-6.88-4.49-12.18c0-5.41,1.5-9.47,4.49-12.18c2.23-2.3,5.46-3.44,9.67-3.44c4.22,0,7.45,1.15,9.68,3.44
		c2.98,2.71,4.47,6.77,4.47,12.18C305.46,302.94,303.97,307,301,309.82 M297.14,305.33c1.44-1.8,2.15-4.37,2.15-7.69
		c0-3.31-0.71-5.87-2.15-7.68c-1.44-1.81-3.38-2.72-5.82-2.72c-2.44,0-4.39,0.9-5.85,2.71c-1.46,1.8-2.18,4.37-2.18,7.69
		c0,3.33,0.73,5.89,2.18,7.69c1.46,1.8,3.41,2.71,5.85,2.71C293.76,308.03,295.7,307.13,297.14,305.33z"/>
	<polyline clip-path="url(#SVGID_2_)" fill="#343333" points="328.27,282.91 334.68,282.91 324.62,312.44 318.79,312.44 
		308.8,282.91 315.39,282.91 321.8,305.33 328.27,282.91 	"/>
	<rect x="338.68" y="282.91" clip-path="url(#SVGID_2_)" fill="#343333" width="6.13" height="29.53"/>
	<path clip-path="url(#SVGID_2_)" fill="#343333" d="M368.7,283.55c2.07,0.68,3.75,1.93,5.03,3.75c1.03,1.47,1.73,3.06,2.11,4.77
		c0.38,1.71,0.56,3.34,0.56,4.89c0,3.93-0.79,7.25-2.37,9.98c-2.14,3.67-5.44,5.51-9.91,5.51H351.4v-29.53h12.73
		C365.96,282.94,367.48,283.15,368.7,283.55 M357.39,288.04v19.27h5.7c2.91,0,4.95-1.44,6.1-4.31c0.63-1.58,0.94-3.45,0.94-5.63
		c0-3-0.47-5.31-1.41-6.92c-0.94-1.61-2.82-2.41-5.63-2.41H357.39z"/>
	<polyline clip-path="url(#SVGID_2_)" fill="#343333" points="403.68,288.14 388.06,288.14 388.06,294.41 402.4,294.41 
		402.4,299.54 388.06,299.54 388.06,307.13 404.4,307.13 404.4,312.44 382.03,312.44 382.03,282.91 403.68,282.91 403.68,288.14 	
		"/>
	<path clip-path="url(#SVGID_2_)" fill="#343333" d="M427.33,283.55c2.07,0.68,3.75,1.93,5.03,3.75c1.03,1.47,1.73,3.06,2.11,4.77
		c0.38,1.71,0.56,3.34,0.56,4.89c0,3.93-0.79,7.25-2.36,9.98c-2.14,3.67-5.44,5.51-9.91,5.51h-12.73v-29.53h12.73
		C424.59,282.94,426.12,283.15,427.33,283.55 M416.02,288.04v19.27h5.7c2.92,0,4.95-1.44,6.1-4.31c0.63-1.58,0.94-3.45,0.94-5.63
		c0-3-0.47-5.31-1.41-6.92c-0.95-1.61-2.82-2.41-5.63-2.41H416.02z"/>
	<path clip-path="url(#SVGID_2_)" fill="#343333" d="M474.72,286.06c0.91,1.25,1.36,2.76,1.36,4.51c0,1.8-0.46,3.25-1.37,4.35
		c-0.51,0.61-1.26,1.18-2.25,1.68c1.51,0.55,2.64,1.42,3.41,2.6c0.77,1.19,1.15,2.63,1.15,4.33c0,1.75-0.44,3.32-1.32,4.71
		c-0.56,0.92-1.25,1.7-2.09,2.32c-0.94,0.72-2.05,1.22-3.34,1.48c-1.28,0.27-2.67,0.4-4.17,0.4h-13.3v-29.53h14.27
		C470.67,282.97,473.22,284.01,474.72,286.06 M458.69,288.04v6.51h7.18c1.28,0,2.32-0.24,3.12-0.73c0.8-0.49,1.2-1.35,1.2-2.59
		c0-1.38-0.53-2.28-1.59-2.72c-0.91-0.31-2.07-0.46-3.49-0.46H458.69z M458.69,299.44v7.87h7.17c1.28,0,2.27-0.18,2.99-0.52
		c1.3-0.64,1.94-1.87,1.94-3.69c0-1.54-0.63-2.59-1.88-3.17c-0.7-0.32-1.68-0.49-2.95-0.5H458.69z"/>
	<polyline clip-path="url(#SVGID_2_)" fill="#343333" points="499.99,282.91 506.99,282.91 497.11,301.37 497.11,312.44 
		490.94,312.44 490.94,301.37 480.72,282.91 487.99,282.91 494.12,295.77 499.99,282.91 	"/>
</g>
</svg>
