<svg xmlns="http://www.w3.org/2000/svg" width="560" height="100" viewBox="0 0 560 100" preserveAspectRatio="xMidYMid">
  <g class="application_progress_bar" fill="none" fill-rule="evenodd">
    <polygon class="progress_step" id="step_1" fill="currentColor" points="87.121 0 0 0 0 100 85.293 100 136.207 49.086"/>
    <polygon class="progress_step" id="step_2" fill="currentColor" points="246.312 0 104.312 0 153.897 49.584 103.481 100 245.481 100 295.897 49.584"/>
    <polygon class="progress_step" id="step_3" fill="currentColor" points="408.831 0 266.831 0 316.416 49.584 266 100 408 100 458.416 49.584"/>
    <polygon class="progress_step" id="step_4" fill="currentColor" points="426.312 0 560 0 560 100 425.481 100 475.897 49.584"/>
  </g>
</svg>
